111520112.000000
98668176.000000
90340448.000000
85007840.000000
84672304.000000
85140592.000000
79836976.000000
79642720.000000
79846144.000000
79879904.000000
116762544.000000
110741648.000000
114980512.000000
115966528.000000
115952864.000000
150324768.000000
154524432.000000
148545888.000000
151070080.000000
148952864.000000
174290576.000000
178114032.000000
178114032.000000
178114032.000000
178114032.000000
