10.736418
3.701287
5.676734
7.252300
8.109662
1.834562
4.489230
6.056512
6.998043
8.798724
2.325209
4.705702
6.378154
7.640092
8.810348
2.771534
5.377346
6.791549
8.503937
9.308187
2.883996
5.480238
7.024290
8.389884
9.214077
