132425.000000
310537.000000
461679.000000
461873.000000
617795.000000
204444.000000
347178.000000
461873.000000
617795.000000
617864.000000
347178.000000
461513.000000
461873.000000
617864.000000
617864.000000
347178.000000
461873.000000
617864.000000
617864.000000
620663.000000
347178.000000
461942.000000
617864.000000
620663.000000
620663.000000
