1533 0 0
1527 0 0
1528 0 0
1534 1 0
1535 1 0
1559 1 0
1529 1 0
1560 1 0
1536 1 0
1530 1 0
1531 1 0
1532 1 0
1550 1 0
1574 1 0
1537 1 0
1538 1 0
1551 1 0
1552 1 0
1553 1 0
1554 1 0
1582 1 0
1575 1 0
1601 1 0
1602 1 0
1576 1 0
1555 1 0
1603 1 0
1577 1 0
1604 1 0
1556 1 0
1578 1 0
1592 1 0
1593 1 0
1557 1 0
1566 1 0
1579 1 0
1594 1 0
1580 1 0
1541 1 0
1581 1 0
1542 1 0
1543 1 0
1595 1 0
1558 1 0
1596 1 0
1567 1 0
1544 1 0
1597 1 0
1568 1 0
1569 1 0
1570 1 0
1571 1 0
1545 1 0
1546 1 0
1598 1 0
1599 1 0
1583 1 0
1606 1 0
1547 1 0
1548 1 0
1561 1 0
1584 1 0
1600 1 0
1549 1 0
1572 1 0
1562 1 0
1585 1 0
1573 1 0
1586 1 0
1563 1 0
1587 1 0
1539 1 0
1540 1 0
1588 1 0
1589 1 0
1564 1 0
1590 1 0
1565 1 0
1591 1 0
1605 1 0
1619 1 0
1621 1 0
1622 1 0
1623 1 0
1624 1 0
1625 1 0
1626 1 0
1633 1 0
1635 1 0
1636 1 0
1637 1 0
1638 1 0
1639 1 0
1640 1 0
1634 1 0
1641 1 0
1642 1 0
1643 0 0
1644 0 0
1627 1 0
1628 1 0
1629 1 0
1630 1 0
1631 1 0
1632 1 0
1645 1 0
1646 1 0
1647 1 0
1648 1 0
1649 1 0
1650 1 0
1651 1 0
1620 1 0
1613 1 0
1614 1 0
1615 1 0
1607 1 0
1608 1 0
1616 1 0
1609 1 0
1617 1 0
1610 1 0
1611 1 0
1612 1 0
1618 1 0
1652 1 0
1666 1 0
1664 1 0
1669 1 0
1673 1 0
1679 1 0
1678 1 0
1680 1 0
1677 1 0
1675 1 0
1674 1 0
1681 1 0
1672 1 0
1671 1 0
1653 1 0
1684 1 0
1687 1 0
1688 1 0
1654 1 0
1693 1 0
1825 1 0
1721 1 0
1697 1 0
1698 1 0
1699 1 0
1700 1 0
1705 1 0
1706 1 0
1709 1 0
1711 1 0
1701 1 0
1710 1 0
1712 1 0
1702 1 0
1703 1 0
1704 1 0
1707 1 0
1708 1 0
1713 1 0
1718 1 0
1720 1 0
1724 0 0
1722 1 0
1715 1 0
1725 0 0
1714 1 0
1727 0 0
1728 0 0
1729 0 0
1732 0 0
1733 0 0
1734 0 0
1735 0 0
1741 0 0
1736 0 0
1717 1 0
1742 0 0
1719 1 0
1737 0 0
1716 1 0
1749 0 0
1738 0 0
1744 0 0
1750 0 0
1751 0 0
1754 0 0
1723 1 0
1757 0 0
1758 0 0
1759 0 0
1755 0 0
1761 0 0
1762 0 0
1746 0 0
1747 0 0
1739 1 0
1763 1 0
1740 1 0
1752 1 0
1748 0 0
1753 1 0
1726 1 0
1730 1 0
1731 1 0
1743 0 0
1768 1 0
1769 1 0
1770 1 0
1771 1 0
1778 1 0
1779 1 0
1783 1 0
1781 1 0
1823 1 0
1766 0 0
1788 1 0
1795 1 0
1796 1 0
1789 1 0
1775 1 0
1791 1 0
1745 0 0
1785 1 0
1799 1 0
1756 0 0
1800 1 0
1801 1 0
1760 0 0
1802 1 0
1803 1 0
1787 1 0
1797 1 0
1765 0 0
1780 1 0
1660 1 0
1774 1 0
1798 1 0
1805 1 0
1792 1 0
1784 1 0
1807 1 0
1776 1 0
1767 0 0
1786 1 0
1794 1 0
1764 1 0
1773 1 0
1790 1 0
1812 1 0
1814 1 0
1813 1 0
1793 1 0
1772 1 0
1810 1 0
1782 1 0
1811 1 0
1821 1 0
1806 1 0
1817 1 0
1818 1 0
1808 1 0
1777 1 0
1819 1 0
1816 1 0
1692 1 0
1820 1 0
1804 1 0
1809 1 0
1937 1 0
1938 1 0
1939 1 0
1940 1 0
1941 1 0
1942 1 0
1943 0 0
1655 1 0
1815 1 0
1832 1 0
1833 1 0
1834 1 0
1835 1 0
1836 1 0
1838 1 0
1842 1 0
1843 1 0
1844 0 0
1845 0 0
1847 0 0
1848 0 0
1841 1 0
1849 0 0
1840 1 0
1850 0 0
1851 0 0
1857 0 0
1859 0 0
1852 0 0
1944 1 0
1864 0 0
1858 0 0
1856 0 0
1865 0 0
1866 0 0
1853 0 0
1868 0 0
1870 0 0
1871 0 0
1872 0 0
1854 1 0
1855 1 0
1873 0 0
1875 1 0
1874 1 0
1884 1 0
1945 1 0
1846 1 0
1876 1 0
1881 1 0
1882 1 0
1837 1 0
1860 0 0
1883 1 0
1839 1 0
1877 1 0
1925 1 0
1892 1 0
1885 1 0
1886 1 0
1887 1 0
1888 1 0
1689 1 0
1894 1 0
1897 1 0
1948 1 0
1926 1 0
1867 0 0
1893 1 0
1862 1 0
1863 0 0
1901 1 0
1861 1 0
1906 1 0
1903 1 0
1907 1 0
1869 0 0
1902 1 0
1898 1 0
1914 1 0
1911 1 0
1917 1 0
1900 1 0
1878 1 0
1879 1 0
1915 1 0
1918 1 0
1912 1 0
1920 1 0
1921 1 0
1880 1 0
1922 1 0
1890 1 0
1895 1 0
1904 1 0
1956 1 0
1824 1 0
1891 1 0
1949 1 0
1909 1 0
1924 1 0
1919 1 0
1905 1 0
1889 1 0
1908 1 0
1694 1 0
1896 1 0
1928 1 0
1931 1 0
1910 1 0
1930 1 0
1923 1 0
1899 1 0
1950 1 0
1953 1 0
1951 1 0
1913 1 0
1929 1 0
1935 1 0
1683 1 0
1933 1 0
1927 1 0
1934 1 0
1932 1 0
1916 1 0
1952 1 0
1831 1 0
1936 1 0
1958 1 0
1661 1 0
1959 0 0
1686 1 0
1984 1 0
1985 1 0
1986 1 0
2003 1 0
2004 1 0
2005 1 0
1960 1 0
1961 1 0
1962 1 0
1963 1 0
1964 1 0
1966 1 0
1967 1 0
1971 1 0
1972 1 0
1968 1 0
1973 1 0
1977 1 0
1965 1 0
1974 1 0
1987 1 0
1976 1 0
1988 1 0
1989 1 0
1990 1 0
1969 1 0
1991 1 0
1992 1 0
2045 1 0
1993 1 0
1995 1 0
1996 1 0
1997 1 0
1998 1 0
1999 1 0
2000 1 0
2001 1 0
2002 1 0
2006 1 0
2007 1 0
1980 1 0
2044 1 0
1981 1 0
1970 1 0
2009 1 0
1975 1 0
2011 1 0
1978 1 0
2013 1 0
2018 1 0
2015 1 0
1979 1 0
1994 1 0
2016 1 0
2022 1 0
1982 1 0
2008 1 0
2046 1 0
1983 1 0
2024 1 0
2019 1 0
2030 1 0
2025 1 0
2031 1 0
2032 1 0
2027 1 0
2021 1 0
2028 1 0
2039 1 0
2040 1 0
2023 1 0
2041 1 0
2042 1 0
2012 1 0
2035 1 0
2036 1 0
2026 1 0
2043 1 0
2037 1 0
2033 1 0
2017 1 0
2029 1 0
2010 1 0
2014 1 0
2049 1 0
2050 1 0
2038 1 0
2052 1 0
2020 1 0
2034 1 0
2054 1 0
2053 1 0
2047 1 0
2048 1 0
2055 1 0
2056 1 0
2051 1 0
1957 1 0
1828 1 0
1676 1 0
1955 1 0
2101 1 0
2102 1 0
2103 1 0
2105 1 0
2104 1 0
2110 1 0
1663 1 0
1691 1 0
1830 0 0
1827 1 0
1826 1 0
1829 1 0
1695 1 0
2059 1 0
2109 1 0
2070 1 0
2071 1 0
2072 1 0
1670 1 0
2057 1 0
1662 1 0
2073 1 0
2060 1 0
2061 1 0
2062 1 0
2063 1 0
2087 1 0
2064 1 0
2089 1 0
2091 1 0
2065 1 0
2066 1 0
2093 1 0
1696 1 0
2067 1 0
2095 1 0
2097 1 0
2074 1 0
1667 1 0
2075 1 0
2076 1 0
2068 1 0
1685 1 0
1822 1 0
2077 1 0
2078 1 0
2079 1 0
2080 1 0
2081 1 0
2082 1 0
2083 1 0
2084 1 0
2085 1 0
1946 1 0
2086 1 0
2088 1 0
2090 1 0
2092 1 0
2069 1 0
2094 1 0
1954 1 0
2096 1 0
2098 1 0
2112 1 0
2108 0 0
2106 1 0
1656 1 0
1658 1 0
1690 1 0
2111 1 0
1665 1 0
2107 0 0
1657 1 0
1659 1 0
2058 1 0
1682 1 0
1947 1 0
1668 1 0
2099 1 0
2100 1 0
