91.85346737533982
91.8623029506067
91.86230358100492
91.87124426171953
94.79311865795582
91.79869283270823
91.84092671634869
91.84092671634869
91.90815338978574
94.75296103742572
92.59911077293933
92.59432625192657
92.59432625192657
95.29253423995671
95.8028464900826
92.59911077293933
92.58927885522992
92.58927885522992
95.29253423995671
95.8028464900826
91.82046141583051
91.91738483771847
91.91738483771847
91.88851041603085
94.84170001754526
