{ id: 0 memory: 128 bandwidth: 0.1 core: 20 }
{ id: 1 memory: 128 bandwidth: 0.1 core: 20 }
{ id: 2 memory: 128 bandwidth: 0.1 core: 20 }
{ id: 3 memory: 128 bandwidth: 0.1 core: 20 }
{ id: 4 memory: 128 bandwidth: 0.1 core: 20 }
{ id: 5 memory: 128 bandwidth: 0.1 core: 20 }
{ id: 6 memory: 128 bandwidth: 0.1 core: 20 }
{ id: 7 memory: 128 bandwidth: 0.1 core: 20 }
{ id: 8 memory: 128 bandwidth: 0.1 core: 20 }
{ id: 9 memory: 128 bandwidth: 0.1 core: 20 }
{ id: 10 memory: 128 bandwidth: 0.1 core: 20 }
{ id: 11 memory: 128 bandwidth: 0.1 core: 20 }
{ id: 12 memory: 128 bandwidth: 0.1 core: 20 }
{ id: 13 memory: 128 bandwidth: 0.1 core: 20 }
{ id: 14 memory: 128 bandwidth: 0.1 core: 20 }
{ id: 15 memory: 128 bandwidth: 0.1 core: 20 }
{ id: 16 memory: 128 bandwidth: 0.1 core: 20 }
{ id: 17 memory: 128 bandwidth: 0.1 core: 20 }
{ id: 18 memory: 128 bandwidth: 0.1 core: 20 }
{ id: 19 memory: 128 bandwidth: 0.1 core: 20 }
{ id: 20 memory: 128 bandwidth: 0.1 core: 20 }
{ id: 21 memory: 128 bandwidth: 0.1 core: 20 }
{ id: 22 memory: 128 bandwidth: 0.1 core: 20 }
{ id: 23 memory: 128 bandwidth: 0.1 core: 20 }
{ id: 24 memory: 128 bandwidth: 0.1 core: 20 }
{ id: 25 memory: 128 bandwidth: 0.1 core: 20 }
{ id: 26 memory: 128 bandwidth: 0.1 core: 20 }
{ id: 27 memory: 128 bandwidth: 0.1 core: 20 }
{ id: 28 memory: 128 bandwidth: 0.1 core: 20 }
{ id: 29 memory: 128 bandwidth: 0.1 core: 20 }
{ id: 30 memory: 128 bandwidth: 0.1 core: 20 }
{ id: 31 memory: 128 bandwidth: 0.1 core: 20 }
{ id: 32 memory: 128 bandwidth: 0.1 core: 20 }
{ id: 33 memory: 128 bandwidth: 0.1 core: 20 }
{ id: 34 memory: 128 bandwidth: 0.1 core: 20 }
{ id: 35 memory: 128 bandwidth: 0.1 core: 20 }
{ id: 36 memory: 128 bandwidth: 0.1 core: 20 }
{ id: 37 memory: 128 bandwidth: 0.1 core: 20 }
{ id: 38 memory: 128 bandwidth: 0.1 core: 20 }
{ id: 39 memory: 128 bandwidth: 0.1 core: 20 }
{ id: 40 memory: 128 bandwidth: 0.1 core: 20 }
{ id: 41 memory: 256 bandwidth: 0.1 core: 20 }
{ id: 42 memory: 256 bandwidth: 0.1 core: 20 }
{ id: 43 memory: 256 bandwidth: 0.1 core: 20 }
{ id: 44 memory: 1024 bandwidth: 0.1 core: 20 }
