{ id: 0 memory: 128 bandwidth: 0.1 core: 20 }
{ id: 1 memory: 128 bandwidth: 0.1 core: 20 }
{ id: 2 memory: 128 bandwidth: 0.1 core: 20 }
{ id: 3 memory: 128 bandwidth: 0.1 core: 20 }
{ id: 4 memory: 128 bandwidth: 0.1 core: 20 }
{ id: 5 memory: 128 bandwidth: 0.1 core: 20 }
{ id: 6 memory: 128 bandwidth: 0.1 core: 20 }
{ id: 7 memory: 128 bandwidth: 0.1 core: 20 }
{ id: 8 memory: 128 bandwidth: 0.1 core: 20 }
{ id: 9 memory: 128 bandwidth: 0.1 core: 20 }
{ id: 10 memory: 128 bandwidth: 0.1 core: 20 }
{ id: 11 memory: 128 bandwidth: 0.1 core: 20 }
{ id: 12 memory: 128 bandwidth: 0.1 core: 20 }
{ id: 13 memory: 128 bandwidth: 0.1 core: 20 }
{ id: 14 memory: 128 bandwidth: 0.1 core: 20 }
{ id: 15 memory: 128 bandwidth: 0.1 core: 20 }
{ id: 16 memory: 128 bandwidth: 0.1 core: 20 }
{ id: 17 memory: 128 bandwidth: 0.1 core: 20 }
{ id: 18 memory: 128 bandwidth: 0.1 core: 20 }
{ id: 19 memory: 128 bandwidth: 0.1 core: 20 }
{ id: 20 memory: 128 bandwidth: 0.1 core: 20 }
{ id: 21 memory: 128 bandwidth: 0.1 core: 20 }
{ id: 22 memory: 128 bandwidth: 0.1 core: 20 }
{ id: 23 memory: 128 bandwidth: 0.1 core: 20 }
{ id: 24 memory: 128 bandwidth: 0.1 core: 20 }
{ id: 25 memory: 128 bandwidth: 0.1 core: 20 }
{ id: 26 memory: 128 bandwidth: 0.1 core: 20 }
{ id: 27 memory: 128 bandwidth: 0.1 core: 20 }
{ id: 28 memory: 128 bandwidth: 0.1 core: 20 }
{ id: 29 memory: 128 bandwidth: 0.1 core: 20 }
{ id: 30 memory: 128 bandwidth: 0.1 core: 20 }
{ id: 31 memory: 128 bandwidth: 0.1 core: 20 }
{ id: 32 memory: 128 bandwidth: 0.1 core: 20 }
{ id: 33 memory: 128 bandwidth: 0.1 core: 20 }
{ id: 34 memory: 128 bandwidth: 0.1 core: 20 }
{ id: 35 memory: 128 bandwidth: 0.1 core: 20 }
{ id: 36 memory: 128 bandwidth: 0.1 core: 20 }
{ id: 37 memory: 128 bandwidth: 0.1 core: 20 }
{ id: 38 memory: 128 bandwidth: 0.1 core: 20 }
{ id: 39 memory: 128 bandwidth: 0.1 core: 20 }
{ id: 40 memory: 128 bandwidth: 0.1 core: 20 }
{ id: 41 memory: 128 bandwidth: 0.1 core: 20 }
{ id: 42 memory: 128 bandwidth: 0.1 core: 20 }
{ id: 43 memory: 128 bandwidth: 0.1 core: 20 }
{ id: 44 memory: 128 bandwidth: 0.1 core: 20 }
{ id: 45 memory: 128 bandwidth: 0.1 core: 20 }
{ id: 46 memory: 128 bandwidth: 0.1 core: 20 }
{ id: 47 memory: 128 bandwidth: 0.1 core: 20 }
{ id: 48 memory: 128 bandwidth: 0.1 core: 20 }
{ id: 49 memory: 128 bandwidth: 0.1 core: 20 }
{ id: 50 memory: 128 bandwidth: 0.1 core: 20 }
{ id: 51 memory: 128 bandwidth: 0.1 core: 20 }
{ id: 52 memory: 128 bandwidth: 0.1 core: 20 }
{ id: 53 memory: 128 bandwidth: 0.1 core: 20 }
{ id: 54 memory: 128 bandwidth: 0.1 core: 20 }
{ id: 55 memory: 128 bandwidth: 0.1 core: 20 }
{ id: 56 memory: 128 bandwidth: 0.1 core: 20 }
{ id: 57 memory: 128 bandwidth: 0.1 core: 20 }
{ id: 58 memory: 128 bandwidth: 0.1 core: 20 }
{ id: 59 memory: 128 bandwidth: 0.1 core: 20 }
{ id: 60 memory: 128 bandwidth: 0.1 core: 20 }
{ id: 61 memory: 128 bandwidth: 0.1 core: 20 }
{ id: 62 memory: 128 bandwidth: 0.1 core: 20 }
{ id: 63 memory: 128 bandwidth: 0.1 core: 20 }
{ id: 64 memory: 128 bandwidth: 0.1 core: 20 }
{ id: 65 memory: 128 bandwidth: 0.1 core: 20 }
{ id: 66 memory: 128 bandwidth: 0.1 core: 20 }
{ id: 67 memory: 128 bandwidth: 0.1 core: 20 }
{ id: 68 memory: 128 bandwidth: 0.1 core: 20 }
{ id: 69 memory: 128 bandwidth: 0.1 core: 20 }
{ id: 70 memory: 128 bandwidth: 0.1 core: 20 }
{ id: 71 memory: 128 bandwidth: 0.1 core: 20 }
{ id: 72 memory: 128 bandwidth: 0.1 core: 20 }
{ id: 73 memory: 128 bandwidth: 0.1 core: 20 }
{ id: 74 memory: 128 bandwidth: 0.1 core: 20 }
{ id: 75 memory: 128 bandwidth: 0.1 core: 20 }
{ id: 76 memory: 128 bandwidth: 0.1 core: 20 }
{ id: 77 memory: 128 bandwidth: 0.1 core: 20 }
{ id: 78 memory: 128 bandwidth: 0.1 core: 20 }
{ id: 79 memory: 128 bandwidth: 0.1 core: 20 }
{ id: 80 memory: 128 bandwidth: 0.1 core: 20 }
{ id: 81 memory: 128 bandwidth: 0.1 core: 20 }
{ id: 82 memory: 128 bandwidth: 0.1 core: 20 }
{ id: 83 memory: 128 bandwidth: 0.1 core: 20 }
{ id: 84 memory: 128 bandwidth: 0.1 core: 20 }
{ id: 85 memory: 128 bandwidth: 0.1 core: 20 }
{ id: 86 memory: 128 bandwidth: 0.1 core: 20 }
{ id: 87 memory: 128 bandwidth: 0.1 core: 20 }
{ id: 88 memory: 128 bandwidth: 0.1 core: 20 }
{ id: 89 memory: 128 bandwidth: 0.1 core: 20 }
{ id: 90 memory: 128 bandwidth: 0.1 core: 20 }
{ id: 91 memory: 128 bandwidth: 0.1 core: 20 }
{ id: 92 memory: 128 bandwidth: 0.1 core: 20 }
{ id: 93 memory: 128 bandwidth: 0.1 core: 20 }
{ id: 94 memory: 128 bandwidth: 0.1 core: 20 }
{ id: 95 memory: 128 bandwidth: 0.1 core: 20 }
{ id: 96 memory: 128 bandwidth: 0.1 core: 20 }
{ id: 97 memory: 128 bandwidth: 0.1 core: 20 }
{ id: 98 memory: 128 bandwidth: 0.1 core: 20 }
{ id: 99 memory: 128 bandwidth: 0.1 core: 20 }
{ id: 100 memory: 128 bandwidth: 0.1 core: 20 }
{ id: 101 memory: 128 bandwidth: 0.1 core: 20 }
{ id: 102 memory: 128 bandwidth: 0.1 core: 20 }
{ id: 103 memory: 128 bandwidth: 0.1 core: 20 }
{ id: 104 memory: 128 bandwidth: 0.1 core: 20 }
{ id: 105 memory: 128 bandwidth: 0.1 core: 20 }
{ id: 106 memory: 128 bandwidth: 0.1 core: 20 }
{ id: 107 memory: 128 bandwidth: 0.1 core: 20 }
{ id: 108 memory: 128 bandwidth: 0.1 core: 20 }
{ id: 109 memory: 128 bandwidth: 0.1 core: 20 }
{ id: 110 memory: 128 bandwidth: 0.1 core: 20 }
{ id: 111 memory: 128 bandwidth: 0.1 core: 20 }
{ id: 112 memory: 128 bandwidth: 0.1 core: 20 }
{ id: 113 memory: 128 bandwidth: 0.1 core: 20 }
{ id: 114 memory: 128 bandwidth: 0.1 core: 20 }
{ id: 115 memory: 128 bandwidth: 0.1 core: 20 }
{ id: 116 memory: 128 bandwidth: 0.1 core: 20 }
{ id: 117 memory: 128 bandwidth: 0.1 core: 20 }
{ id: 118 memory: 128 bandwidth: 0.1 core: 20 }
{ id: 119 memory: 128 bandwidth: 0.1 core: 20 }
{ id: 120 memory: 128 bandwidth: 0.1 core: 20 }
{ id: 121 memory: 128 bandwidth: 0.1 core: 20 }
{ id: 122 memory: 128 bandwidth: 0.1 core: 20 }
{ id: 123 memory: 128 bandwidth: 0.1 core: 20 }
{ id: 124 memory: 128 bandwidth: 0.1 core: 20 }
{ id: 125 memory: 128 bandwidth: 0.1 core: 20 }
{ id: 126 memory: 128 bandwidth: 0.1 core: 20 }
{ id: 127 memory: 128 bandwidth: 0.1 core: 20 }
{ id: 128 memory: 128 bandwidth: 0.1 core: 20 }
{ id: 129 memory: 128 bandwidth: 0.1 core: 20 }
{ id: 130 memory: 128 bandwidth: 0.1 core: 20 }
{ id: 131 memory: 128 bandwidth: 0.1 core: 20 }
{ id: 132 memory: 128 bandwidth: 0.1 core: 20 }
{ id: 133 memory: 128 bandwidth: 0.1 core: 20 }
{ id: 134 memory: 128 bandwidth: 0.1 core: 20 }
{ id: 135 memory: 128 bandwidth: 0.1 core: 20 }
{ id: 136 memory: 128 bandwidth: 0.1 core: 20 }
{ id: 137 memory: 128 bandwidth: 0.1 core: 20 }
{ id: 138 memory: 128 bandwidth: 0.1 core: 20 }
{ id: 139 memory: 128 bandwidth: 0.1 core: 20 }
{ id: 140 memory: 128 bandwidth: 0.1 core: 20 }
{ id: 141 memory: 128 bandwidth: 0.1 core: 20 }
{ id: 142 memory: 128 bandwidth: 0.1 core: 20 }
{ id: 143 memory: 128 bandwidth: 0.1 core: 20 }
{ id: 144 memory: 128 bandwidth: 0.1 core: 20 }
{ id: 145 memory: 128 bandwidth: 0.1 core: 20 }
{ id: 146 memory: 128 bandwidth: 0.1 core: 20 }
{ id: 147 memory: 128 bandwidth: 0.1 core: 20 }
{ id: 148 memory: 128 bandwidth: 0.1 core: 20 }
{ id: 149 memory: 128 bandwidth: 0.1 core: 20 }
{ id: 150 memory: 128 bandwidth: 0.1 core: 20 }
{ id: 151 memory: 128 bandwidth: 0.1 core: 20 }
{ id: 152 memory: 128 bandwidth: 0.1 core: 20 }
{ id: 153 memory: 128 bandwidth: 0.1 core: 20 }
{ id: 154 memory: 128 bandwidth: 0.1 core: 20 }
{ id: 155 memory: 128 bandwidth: 0.1 core: 20 }
{ id: 156 memory: 128 bandwidth: 0.1 core: 20 }
{ id: 157 memory: 128 bandwidth: 0.1 core: 20 }
{ id: 158 memory: 128 bandwidth: 0.1 core: 20 }
{ id: 159 memory: 128 bandwidth: 0.1 core: 20 }
{ id: 160 memory: 128 bandwidth: 0.1 core: 20 }
{ id: 161 memory: 128 bandwidth: 0.1 core: 20 }
{ id: 162 memory: 128 bandwidth: 0.1 core: 20 }
{ id: 163 memory: 128 bandwidth: 0.1 core: 20 }
{ id: 164 memory: 128 bandwidth: 0.1 core: 20 }
{ id: 165 memory: 128 bandwidth: 0.1 core: 20 }
{ id: 166 memory: 128 bandwidth: 0.1 core: 20 }
{ id: 167 memory: 128 bandwidth: 0.1 core: 20 }
{ id: 168 memory: 128 bandwidth: 0.1 core: 20 }
{ id: 169 memory: 128 bandwidth: 0.1 core: 20 }
{ id: 170 memory: 128 bandwidth: 0.1 core: 20 }
{ id: 171 memory: 128 bandwidth: 0.1 core: 20 }
{ id: 172 memory: 128 bandwidth: 0.1 core: 20 }
{ id: 173 memory: 128 bandwidth: 0.1 core: 20 }
{ id: 174 memory: 128 bandwidth: 0.1 core: 20 }
{ id: 175 memory: 128 bandwidth: 0.1 core: 20 }
{ id: 176 memory: 128 bandwidth: 0.1 core: 20 }
{ id: 177 memory: 128 bandwidth: 0.1 core: 20 }
{ id: 178 memory: 128 bandwidth: 0.1 core: 20 }
{ id: 179 memory: 128 bandwidth: 0.1 core: 20 }
{ id: 180 memory: 128 bandwidth: 0.1 core: 20 }
{ id: 181 memory: 128 bandwidth: 0.1 core: 20 }
{ id: 182 memory: 128 bandwidth: 0.1 core: 20 }
{ id: 183 memory: 128 bandwidth: 0.1 core: 20 }
{ id: 184 memory: 128 bandwidth: 0.1 core: 20 }
{ id: 185 memory: 128 bandwidth: 0.1 core: 20 }
{ id: 186 memory: 128 bandwidth: 0.1 core: 20 }
{ id: 187 memory: 128 bandwidth: 0.1 core: 20 }
{ id: 188 memory: 128 bandwidth: 0.1 core: 20 }
{ id: 189 memory: 128 bandwidth: 0.1 core: 20 }
{ id: 190 memory: 128 bandwidth: 0.1 core: 20 }
{ id: 191 memory: 128 bandwidth: 0.1 core: 20 }
{ id: 192 memory: 128 bandwidth: 0.1 core: 20 }
{ id: 193 memory: 128 bandwidth: 0.1 core: 20 }
{ id: 194 memory: 128 bandwidth: 0.1 core: 20 }
{ id: 195 memory: 128 bandwidth: 0.1 core: 20 }
{ id: 196 memory: 128 bandwidth: 0.1 core: 20 }
{ id: 197 memory: 128 bandwidth: 0.1 core: 20 }
{ id: 198 memory: 128 bandwidth: 0.1 core: 20 }
{ id: 199 memory: 128 bandwidth: 0.1 core: 20 }
{ id: 200 memory: 128 bandwidth: 0.1 core: 20 }
{ id: 201 memory: 128 bandwidth: 0.1 core: 20 }
{ id: 202 memory: 128 bandwidth: 0.1 core: 20 }
{ id: 203 memory: 128 bandwidth: 0.1 core: 20 }
{ id: 204 memory: 128 bandwidth: 0.1 core: 20 }
{ id: 205 memory: 128 bandwidth: 0.1 core: 20 }
{ id: 206 memory: 128 bandwidth: 0.1 core: 20 }
{ id: 207 memory: 128 bandwidth: 0.1 core: 20 }
{ id: 208 memory: 128 bandwidth: 0.1 core: 20 }
{ id: 209 memory: 128 bandwidth: 0.1 core: 20 }
{ id: 210 memory: 128 bandwidth: 0.1 core: 20 }
{ id: 211 memory: 128 bandwidth: 0.1 core: 20 }
{ id: 212 memory: 128 bandwidth: 0.1 core: 20 }
{ id: 213 memory: 128 bandwidth: 0.1 core: 20 }
{ id: 214 memory: 128 bandwidth: 0.1 core: 20 }
{ id: 215 memory: 128 bandwidth: 0.1 core: 20 }
{ id: 216 memory: 128 bandwidth: 0.1 core: 20 }
{ id: 217 memory: 128 bandwidth: 0.1 core: 20 }
{ id: 218 memory: 128 bandwidth: 0.1 core: 20 }
{ id: 219 memory: 128 bandwidth: 0.1 core: 20 }
{ id: 220 memory: 128 bandwidth: 0.1 core: 20 }
{ id: 221 memory: 128 bandwidth: 0.1 core: 20 }
{ id: 222 memory: 128 bandwidth: 0.1 core: 20 }
{ id: 223 memory: 128 bandwidth: 0.1 core: 20 }
{ id: 224 memory: 128 bandwidth: 0.1 core: 20 }
{ id: 225 memory: 128 bandwidth: 0.1 core: 20 }
{ id: 226 memory: 128 bandwidth: 0.1 core: 20 }
{ id: 227 memory: 128 bandwidth: 0.1 core: 20 }
{ id: 228 memory: 128 bandwidth: 0.1 core: 20 }
{ id: 229 memory: 128 bandwidth: 0.1 core: 20 }
{ id: 230 memory: 128 bandwidth: 0.1 core: 20 }
{ id: 231 memory: 128 bandwidth: 0.1 core: 20 }
{ id: 232 memory: 128 bandwidth: 0.1 core: 20 }
{ id: 233 memory: 128 bandwidth: 0.1 core: 20 }
{ id: 234 memory: 128 bandwidth: 0.1 core: 20 }
{ id: 235 memory: 128 bandwidth: 0.1 core: 20 }
{ id: 236 memory: 128 bandwidth: 0.1 core: 20 }
{ id: 237 memory: 128 bandwidth: 0.1 core: 20 }
{ id: 238 memory: 128 bandwidth: 0.1 core: 20 }
{ id: 239 memory: 128 bandwidth: 0.1 core: 20 }
{ id: 240 memory: 128 bandwidth: 0.1 core: 20 }
{ id: 241 memory: 128 bandwidth: 0.1 core: 20 }
{ id: 242 memory: 128 bandwidth: 0.1 core: 20 }
{ id: 243 memory: 128 bandwidth: 0.1 core: 20 }
{ id: 244 memory: 128 bandwidth: 0.1 core: 20 }
{ id: 245 memory: 128 bandwidth: 0.1 core: 20 }
{ id: 246 memory: 128 bandwidth: 0.1 core: 20 }
{ id: 247 memory: 128 bandwidth: 0.1 core: 20 }
{ id: 248 memory: 128 bandwidth: 0.1 core: 20 }
{ id: 249 memory: 128 bandwidth: 0.1 core: 20 }
{ id: 250 memory: 128 bandwidth: 0.1 core: 20 }
{ id: 251 memory: 128 bandwidth: 0.1 core: 20 }
{ id: 252 memory: 128 bandwidth: 0.1 core: 20 }
{ id: 253 memory: 128 bandwidth: 0.1 core: 20 }
{ id: 254 memory: 128 bandwidth: 0.1 core: 20 }
{ id: 255 memory: 128 bandwidth: 0.1 core: 20 }
{ id: 256 memory: 128 bandwidth: 0.1 core: 20 }
{ id: 257 memory: 128 bandwidth: 0.1 core: 20 }
{ id: 258 memory: 128 bandwidth: 0.1 core: 20 }
{ id: 259 memory: 128 bandwidth: 0.1 core: 20 }
{ id: 260 memory: 128 bandwidth: 0.1 core: 20 }
{ id: 261 memory: 128 bandwidth: 0.1 core: 20 }
{ id: 262 memory: 128 bandwidth: 0.1 core: 20 }
{ id: 263 memory: 128 bandwidth: 0.1 core: 20 }
{ id: 264 memory: 128 bandwidth: 0.1 core: 20 }
{ id: 265 memory: 128 bandwidth: 0.1 core: 20 }
{ id: 266 memory: 128 bandwidth: 0.1 core: 20 }
{ id: 267 memory: 128 bandwidth: 0.1 core: 20 }
{ id: 268 memory: 128 bandwidth: 0.1 core: 20 }
{ id: 269 memory: 128 bandwidth: 0.1 core: 20 }
{ id: 270 memory: 128 bandwidth: 0.1 core: 20 }
{ id: 271 memory: 128 bandwidth: 0.1 core: 20 }
{ id: 272 memory: 128 bandwidth: 0.1 core: 20 }
{ id: 273 memory: 128 bandwidth: 0.1 core: 20 }
{ id: 274 memory: 128 bandwidth: 0.1 core: 20 }
{ id: 275 memory: 128 bandwidth: 0.1 core: 20 }
{ id: 276 memory: 128 bandwidth: 0.1 core: 20 }
{ id: 277 memory: 128 bandwidth: 0.1 core: 20 }
{ id: 278 memory: 128 bandwidth: 0.1 core: 20 }
{ id: 279 memory: 128 bandwidth: 0.1 core: 20 }
{ id: 280 memory: 128 bandwidth: 0.1 core: 20 }
{ id: 281 memory: 128 bandwidth: 0.1 core: 20 }
{ id: 282 memory: 128 bandwidth: 0.1 core: 20 }
{ id: 283 memory: 128 bandwidth: 0.1 core: 20 }
{ id: 284 memory: 128 bandwidth: 0.1 core: 20 }
{ id: 285 memory: 128 bandwidth: 0.1 core: 20 }
{ id: 286 memory: 128 bandwidth: 0.1 core: 20 }
{ id: 287 memory: 128 bandwidth: 0.1 core: 20 }
{ id: 288 memory: 128 bandwidth: 0.1 core: 20 }
{ id: 289 memory: 128 bandwidth: 0.1 core: 20 }
{ id: 290 memory: 128 bandwidth: 0.1 core: 20 }
{ id: 291 memory: 128 bandwidth: 0.1 core: 20 }
{ id: 292 memory: 128 bandwidth: 0.1 core: 20 }
{ id: 293 memory: 128 bandwidth: 0.1 core: 20 }
{ id: 294 memory: 128 bandwidth: 0.1 core: 20 }
{ id: 295 memory: 128 bandwidth: 0.1 core: 20 }
{ id: 296 memory: 128 bandwidth: 0.1 core: 20 }
{ id: 297 memory: 128 bandwidth: 0.1 core: 20 }
{ id: 298 memory: 128 bandwidth: 0.1 core: 20 }
{ id: 299 memory: 128 bandwidth: 0.1 core: 20 }
{ id: 300 memory: 128 bandwidth: 0.1 core: 20 }
{ id: 301 memory: 128 bandwidth: 0.1 core: 20 }
{ id: 302 memory: 128 bandwidth: 0.1 core: 20 }
{ id: 303 memory: 128 bandwidth: 0.1 core: 20 }
{ id: 304 memory: 128 bandwidth: 0.1 core: 20 }
{ id: 305 memory: 128 bandwidth: 0.1 core: 20 }
{ id: 306 memory: 128 bandwidth: 0.1 core: 20 }
{ id: 307 memory: 128 bandwidth: 0.1 core: 20 }
{ id: 308 memory: 128 bandwidth: 0.1 core: 20 }
{ id: 309 memory: 128 bandwidth: 0.1 core: 20 }
{ id: 310 memory: 128 bandwidth: 0.1 core: 20 }
{ id: 311 memory: 128 bandwidth: 0.1 core: 20 }
{ id: 312 memory: 128 bandwidth: 0.1 core: 20 }
{ id: 313 memory: 128 bandwidth: 0.1 core: 20 }
{ id: 314 memory: 128 bandwidth: 0.1 core: 20 }
{ id: 315 memory: 128 bandwidth: 0.1 core: 20 }
{ id: 316 memory: 128 bandwidth: 0.1 core: 20 }
{ id: 317 memory: 128 bandwidth: 0.1 core: 20 }
{ id: 318 memory: 128 bandwidth: 0.1 core: 20 }
{ id: 319 memory: 128 bandwidth: 0.1 core: 20 }
{ id: 320 memory: 128 bandwidth: 0.1 core: 20 }
{ id: 321 memory: 128 bandwidth: 0.1 core: 20 }
{ id: 322 memory: 128 bandwidth: 0.1 core: 20 }
{ id: 323 memory: 128 bandwidth: 0.1 core: 20 }
{ id: 324 memory: 128 bandwidth: 0.1 core: 20 }
{ id: 325 memory: 128 bandwidth: 0.1 core: 20 }
{ id: 326 memory: 128 bandwidth: 0.1 core: 20 }
{ id: 327 memory: 128 bandwidth: 0.1 core: 20 }
{ id: 328 memory: 128 bandwidth: 0.1 core: 20 }
{ id: 329 memory: 128 bandwidth: 0.1 core: 20 }
{ id: 330 memory: 128 bandwidth: 0.1 core: 20 }
{ id: 331 memory: 128 bandwidth: 0.1 core: 20 }
{ id: 332 memory: 128 bandwidth: 0.1 core: 20 }
{ id: 333 memory: 128 bandwidth: 0.1 core: 20 }
{ id: 334 memory: 128 bandwidth: 0.1 core: 20 }
{ id: 335 memory: 128 bandwidth: 0.1 core: 20 }
{ id: 336 memory: 128 bandwidth: 0.1 core: 20 }
{ id: 337 memory: 128 bandwidth: 0.1 core: 20 }
{ id: 338 memory: 128 bandwidth: 0.1 core: 20 }
{ id: 339 memory: 128 bandwidth: 0.1 core: 20 }
{ id: 340 memory: 128 bandwidth: 0.1 core: 20 }
{ id: 341 memory: 128 bandwidth: 0.1 core: 20 }
{ id: 342 memory: 128 bandwidth: 0.1 core: 20 }
{ id: 343 memory: 128 bandwidth: 0.1 core: 20 }
{ id: 344 memory: 128 bandwidth: 0.1 core: 20 }
{ id: 345 memory: 128 bandwidth: 0.1 core: 20 }
{ id: 346 memory: 128 bandwidth: 0.1 core: 20 }
{ id: 347 memory: 128 bandwidth: 0.1 core: 20 }
{ id: 348 memory: 128 bandwidth: 0.1 core: 20 }
{ id: 349 memory: 128 bandwidth: 0.1 core: 20 }
{ id: 350 memory: 128 bandwidth: 0.1 core: 20 }
{ id: 351 memory: 128 bandwidth: 0.1 core: 20 }
{ id: 352 memory: 128 bandwidth: 0.1 core: 20 }
{ id: 353 memory: 128 bandwidth: 0.1 core: 20 }
{ id: 354 memory: 128 bandwidth: 0.1 core: 20 }
{ id: 355 memory: 128 bandwidth: 0.1 core: 20 }
{ id: 356 memory: 128 bandwidth: 0.1 core: 20 }
{ id: 357 memory: 128 bandwidth: 0.1 core: 20 }
{ id: 358 memory: 128 bandwidth: 0.1 core: 20 }
{ id: 359 memory: 128 bandwidth: 0.1 core: 20 }
{ id: 360 memory: 128 bandwidth: 0.1 core: 20 }
{ id: 361 memory: 128 bandwidth: 0.1 core: 20 }
{ id: 362 memory: 128 bandwidth: 0.1 core: 20 }
{ id: 363 memory: 128 bandwidth: 0.1 core: 20 }
{ id: 364 memory: 128 bandwidth: 0.1 core: 20 }
{ id: 365 memory: 128 bandwidth: 0.1 core: 20 }
{ id: 366 memory: 128 bandwidth: 0.1 core: 20 }
{ id: 367 memory: 128 bandwidth: 0.1 core: 20 }
{ id: 368 memory: 128 bandwidth: 0.1 core: 20 }
{ id: 369 memory: 128 bandwidth: 0.1 core: 20 }
{ id: 370 memory: 128 bandwidth: 0.1 core: 20 }
{ id: 371 memory: 128 bandwidth: 0.1 core: 20 }
{ id: 372 memory: 128 bandwidth: 0.1 core: 20 }
{ id: 373 memory: 128 bandwidth: 0.1 core: 20 }
{ id: 374 memory: 128 bandwidth: 0.1 core: 20 }
{ id: 375 memory: 128 bandwidth: 0.1 core: 20 }
{ id: 376 memory: 128 bandwidth: 0.1 core: 20 }
{ id: 377 memory: 128 bandwidth: 0.1 core: 20 }
{ id: 378 memory: 128 bandwidth: 0.1 core: 20 }
{ id: 379 memory: 128 bandwidth: 0.1 core: 20 }
{ id: 380 memory: 128 bandwidth: 0.1 core: 20 }
{ id: 381 memory: 128 bandwidth: 0.1 core: 20 }
{ id: 382 memory: 128 bandwidth: 0.1 core: 20 }
{ id: 383 memory: 128 bandwidth: 0.1 core: 20 }
{ id: 384 memory: 128 bandwidth: 0.1 core: 20 }
{ id: 385 memory: 128 bandwidth: 0.1 core: 20 }
{ id: 386 memory: 128 bandwidth: 0.1 core: 20 }
{ id: 387 memory: 128 bandwidth: 0.1 core: 20 }
{ id: 388 memory: 128 bandwidth: 0.1 core: 20 }
{ id: 389 memory: 128 bandwidth: 0.1 core: 20 }
{ id: 390 memory: 128 bandwidth: 0.1 core: 20 }
{ id: 391 memory: 128 bandwidth: 0.1 core: 20 }
{ id: 392 memory: 128 bandwidth: 0.1 core: 20 }
{ id: 393 memory: 128 bandwidth: 0.1 core: 20 }
{ id: 394 memory: 128 bandwidth: 0.1 core: 20 }
{ id: 395 memory: 128 bandwidth: 0.1 core: 20 }
{ id: 396 memory: 128 bandwidth: 0.1 core: 20 }
{ id: 397 memory: 128 bandwidth: 0.1 core: 20 }
{ id: 398 memory: 128 bandwidth: 0.1 core: 20 }
{ id: 399 memory: 128 bandwidth: 0.1 core: 20 }
{ id: 400 memory: 128 bandwidth: 0.1 core: 20 }
{ id: 401 memory: 128 bandwidth: 0.1 core: 20 }
{ id: 402 memory: 128 bandwidth: 0.1 core: 20 }
{ id: 403 memory: 128 bandwidth: 0.1 core: 20 }
{ id: 404 memory: 128 bandwidth: 0.1 core: 20 }
{ id: 405 memory: 128 bandwidth: 0.1 core: 20 }
{ id: 406 memory: 128 bandwidth: 0.1 core: 20 }
{ id: 407 memory: 128 bandwidth: 0.1 core: 20 }
{ id: 408 memory: 128 bandwidth: 0.1 core: 20 }
{ id: 409 memory: 128 bandwidth: 0.1 core: 20 }
{ id: 410 memory: 128 bandwidth: 0.1 core: 20 }
{ id: 411 memory: 128 bandwidth: 0.1 core: 20 }
{ id: 412 memory: 128 bandwidth: 0.1 core: 20 }
{ id: 413 memory: 128 bandwidth: 0.1 core: 20 }
{ id: 414 memory: 128 bandwidth: 0.1 core: 20 }
{ id: 415 memory: 128 bandwidth: 0.1 core: 20 }
{ id: 416 memory: 128 bandwidth: 0.1 core: 20 }
{ id: 417 memory: 128 bandwidth: 0.1 core: 20 }
{ id: 418 memory: 128 bandwidth: 0.1 core: 20 }
{ id: 419 memory: 128 bandwidth: 0.1 core: 20 }
{ id: 420 memory: 128 bandwidth: 0.1 core: 20 }
{ id: 421 memory: 128 bandwidth: 0.1 core: 20 }
{ id: 422 memory: 128 bandwidth: 0.1 core: 20 }
{ id: 423 memory: 128 bandwidth: 0.1 core: 20 }
{ id: 424 memory: 128 bandwidth: 0.1 core: 20 }
{ id: 425 memory: 128 bandwidth: 0.1 core: 20 }
{ id: 426 memory: 128 bandwidth: 0.1 core: 20 }
{ id: 427 memory: 128 bandwidth: 0.1 core: 20 }
{ id: 428 memory: 128 bandwidth: 0.1 core: 20 }
{ id: 429 memory: 128 bandwidth: 0.1 core: 20 }
{ id: 430 memory: 128 bandwidth: 0.1 core: 20 }
{ id: 431 memory: 128 bandwidth: 0.1 core: 20 }
{ id: 432 memory: 128 bandwidth: 0.1 core: 20 }
{ id: 433 memory: 128 bandwidth: 0.1 core: 20 }
{ id: 434 memory: 128 bandwidth: 0.1 core: 20 }
{ id: 435 memory: 128 bandwidth: 0.1 core: 20 }
{ id: 436 memory: 128 bandwidth: 0.1 core: 20 }
{ id: 437 memory: 128 bandwidth: 0.1 core: 20 }
{ id: 438 memory: 128 bandwidth: 0.1 core: 20 }
{ id: 439 memory: 128 bandwidth: 0.1 core: 20 }
{ id: 440 memory: 128 bandwidth: 0.1 core: 20 }
{ id: 441 memory: 128 bandwidth: 0.1 core: 20 }
{ id: 442 memory: 128 bandwidth: 0.1 core: 20 }
{ id: 443 memory: 128 bandwidth: 0.1 core: 20 }
{ id: 444 memory: 128 bandwidth: 0.1 core: 20 }
{ id: 445 memory: 128 bandwidth: 0.1 core: 20 }
{ id: 446 memory: 128 bandwidth: 0.1 core: 20 }
{ id: 447 memory: 128 bandwidth: 0.1 core: 20 }
{ id: 448 memory: 128 bandwidth: 0.1 core: 20 }
{ id: 449 memory: 128 bandwidth: 0.1 core: 20 }
{ id: 450 memory: 256 bandwidth: 0.1 core: 20 }
{ id: 451 memory: 256 bandwidth: 0.1 core: 20 }
{ id: 452 memory: 256 bandwidth: 0.1 core: 20 }
{ id: 453 memory: 256 bandwidth: 0.1 core: 20 }
{ id: 454 memory: 256 bandwidth: 0.1 core: 20 }
{ id: 455 memory: 256 bandwidth: 0.1 core: 20 }
{ id: 456 memory: 256 bandwidth: 0.1 core: 20 }
{ id: 457 memory: 256 bandwidth: 0.1 core: 20 }
{ id: 458 memory: 256 bandwidth: 0.1 core: 20 }
{ id: 459 memory: 256 bandwidth: 0.1 core: 20 }
{ id: 460 memory: 256 bandwidth: 0.1 core: 20 }
{ id: 461 memory: 256 bandwidth: 0.1 core: 20 }
{ id: 462 memory: 256 bandwidth: 0.1 core: 20 }
{ id: 463 memory: 256 bandwidth: 0.1 core: 20 }
{ id: 464 memory: 256 bandwidth: 0.1 core: 20 }
{ id: 465 memory: 256 bandwidth: 0.1 core: 20 }
{ id: 466 memory: 256 bandwidth: 0.1 core: 20 }
{ id: 467 memory: 256 bandwidth: 0.1 core: 20 }
{ id: 468 memory: 256 bandwidth: 0.1 core: 20 }
{ id: 469 memory: 256 bandwidth: 0.1 core: 20 }
{ id: 470 memory: 256 bandwidth: 0.1 core: 20 }
{ id: 471 memory: 256 bandwidth: 0.1 core: 20 }
{ id: 472 memory: 256 bandwidth: 0.1 core: 20 }
{ id: 473 memory: 256 bandwidth: 0.1 core: 20 }
{ id: 474 memory: 256 bandwidth: 0.1 core: 20 }
{ id: 475 memory: 256 bandwidth: 0.1 core: 20 }
{ id: 476 memory: 256 bandwidth: 0.1 core: 20 }
{ id: 477 memory: 256 bandwidth: 0.1 core: 20 }
{ id: 478 memory: 256 bandwidth: 0.1 core: 20 }
{ id: 479 memory: 256 bandwidth: 0.1 core: 20 }
{ id: 480 memory: 256 bandwidth: 0.1 core: 20 }
{ id: 481 memory: 256 bandwidth: 0.1 core: 20 }
{ id: 482 memory: 1024 bandwidth: 0.1 core: 20 }
{ id: 483 memory: 1024 bandwidth: 0.1 core: 20 }
{ id: 484 memory: 1024 bandwidth: 0.1 core: 20 }
{ id: 485 memory: 1024 bandwidth: 0.1 core: 20 }
