date 1.0006 failure 1
date 1.0006 nodesteal 1
date 1.0006 failure 1
date 1.0006 nodesteal 1
date 1.0006 failure 1
date 1.0006 nodesteal 1
date 1.0006 failure 1
date 1.0006 nodesteal 1
date 1.0006 failure 1
date 1.0006 nodesteal 1
date 1.0006 failure 1
date 1.0006 nodesteal 1
date 1.0006 failure 1
date 1.0006 nodesteal 1
date 1.0006 failure 1
date 1.0006 nodesteal 1
date 1.0006 failure 1
date 1.0006 nodesteal 1
date 1.0006 failure 1
date 1.0006 nodesteal 1
