91.85346737533982
3.835374248471022
3.6660005120580954
3.676598746418032
3.643684948277867
11.793199535738552
11.840388577594371
11.877967622565047
11.84244594211981
11.472526267220983
11.793234718929313
11.895488153091014
11.895488153091014
11.881396285935914
11.760553487169929
11.793234718929313
11.895542353037563
11.895488153091014
11.895488153091014
11.881396285935914
11.793234718929313
11.895542353037563
11.895488153091014
11.895488153091014
11.895488153091014
